%YAML 1.1
%TAG !u! tag:unity3d.com,2011:
--- !u!1 &2943245942214841167
GameObject:
  m_ObjectHideFlags: 0
  m_CorrespondingSourceObject: {fileID: 0}
  m_PrefabInstance: {fileID: 0}
  m_PrefabAsset: {fileID: 0}
  serializedVersion: 6
  m_Component:
  - component: {fileID: 7160931678180986867}
  - component: {fileID: 2770030447697778350}
  m_Layer: 0
  m_Name: GameManager
  m_TagString: GameController
  m_Icon: {fileID: 0}
  m_NavMeshLayer: 0
  m_StaticEditorFlags: 0
  m_IsActive: 1
--- !u!4 &7160931678180986867
Transform:
  m_ObjectHideFlags: 0
  m_CorrespondingSourceObject: {fileID: 0}
  m_PrefabInstance: {fileID: 0}
  m_PrefabAsset: {fileID: 0}
  m_GameObject: {fileID: 2943245942214841167}
  m_LocalRotation: {x: 0, y: 0, z: 0, w: 1}
  m_LocalPosition: {x: -3.9010894, y: 1.0336682, z: 2.6401968}
  m_LocalScale: {x: 1, y: 1, z: 1}
  m_Children: []
  m_Father: {fileID: 0}
  m_RootOrder: 0
  m_LocalEulerAnglesHint: {x: 0, y: 0, z: 0}
--- !u!114 &2770030447697778350
MonoBehaviour:
  m_ObjectHideFlags: 0
  m_CorrespondingSourceObject: {fileID: 0}
  m_PrefabInstance: {fileID: 0}
  m_PrefabAsset: {fileID: 0}
  m_GameObject: {fileID: 2943245942214841167}
  m_Enabled: 1
  m_EditorHideFlags: 0
  m_Script: {fileID: 11500000, guid: 554c5f2f9dee81d4bbb1b6abf516a64b, type: 3}
  m_Name: 
  m_EditorClassIdentifier: 
  bursts:
  - bombRate: 1
    bombSpeed: 1
    speed: 1
    bombCount: 5
    pointPerBomb: 1
  - bombRate: 2
    bombSpeed: 2
    speed: 2
    bombCount: 6
    pointPerBomb: 2
  - bombRate: 3
    bombSpeed: 3
    speed: 3
    bombCount: 7
    pointPerBomb: 3
  - bombRate: 4
    bombSpeed: 4
    speed: 4
    bombCount: 8
    pointPerBomb: 4
  - bombRate: 5
    bombSpeed: 5
    speed: 5
    bombCount: 10
    pointPerBomb: 10
